%!PS-Adobe-2.0 EPSF-2.0
%%Title: xfig.fig
%%Creator: fig2dev Version 3.2 Patchlevel 5
%%CreationDate: Thu Apr 17 19:29:07 2008
%%For: tobiasps@TobiiBook.local (Tobias Pyndt Steinmann)
%%BoundingBox: 0 0 191 114
%Magnification: 1.0000
%%EndComments
/$F2psDict 200 dict def
$F2psDict begin
$F2psDict /mtrx matrix put
/col-1 {0 setgray} bind def
/col0 {0.000 0.000 0.000 srgb} bind def
/col1 {0.000 0.000 1.000 srgb} bind def
/col2 {0.000 1.000 0.000 srgb} bind def
/col3 {0.000 1.000 1.000 srgb} bind def
/col4 {1.000 0.000 0.000 srgb} bind def
/col5 {1.000 0.000 1.000 srgb} bind def
/col6 {1.000 1.000 0.000 srgb} bind def
/col7 {1.000 1.000 1.000 srgb} bind def
/col8 {0.000 0.000 0.560 srgb} bind def
/col9 {0.000 0.000 0.690 srgb} bind def
/col10 {0.000 0.000 0.820 srgb} bind def
/col11 {0.530 0.810 1.000 srgb} bind def
/col12 {0.000 0.560 0.000 srgb} bind def
/col13 {0.000 0.690 0.000 srgb} bind def
/col14 {0.000 0.820 0.000 srgb} bind def
/col15 {0.000 0.560 0.560 srgb} bind def
/col16 {0.000 0.690 0.690 srgb} bind def
/col17 {0.000 0.820 0.820 srgb} bind def
/col18 {0.560 0.000 0.000 srgb} bind def
/col19 {0.690 0.000 0.000 srgb} bind def
/col20 {0.820 0.000 0.000 srgb} bind def
/col21 {0.560 0.000 0.560 srgb} bind def
/col22 {0.690 0.000 0.690 srgb} bind def
/col23 {0.820 0.000 0.820 srgb} bind def
/col24 {0.500 0.190 0.000 srgb} bind def
/col25 {0.630 0.250 0.000 srgb} bind def
/col26 {0.750 0.380 0.000 srgb} bind def
/col27 {1.000 0.500 0.500 srgb} bind def
/col28 {1.000 0.630 0.630 srgb} bind def
/col29 {1.000 0.750 0.750 srgb} bind def
/col30 {1.000 0.880 0.880 srgb} bind def
/col31 {1.000 0.840 0.000 srgb} bind def
/col32 {0.486 0.486 0.486 srgb} bind def
/col33 {0.788 0.667 0.631 srgb} bind def
/col34 {0.557 0.557 0.557 srgb} bind def
/col35 {0.502 0.502 0.502 srgb} bind def
/col36 {0.714 0.714 0.714 srgb} bind def
/col37 {0.675 0.580 0.471 srgb} bind def

end
save
newpath 0 114 moveto 0 0 lineto 191 0 lineto 191 114 lineto closepath clip newpath
-237.8 252.7 translate
1 -1 scale

/cp {closepath} bind def
/ef {eofill} bind def
/gr {grestore} bind def
/gs {gsave} bind def
/sa {save} bind def
/rs {restore} bind def
/l {lineto} bind def
/m {moveto} bind def
/rm {rmoveto} bind def
/n {newpath} bind def
/s {stroke} bind def
/sh {show} bind def
/slc {setlinecap} bind def
/slj {setlinejoin} bind def
/slw {setlinewidth} bind def
/srgb {setrgbcolor} bind def
/rot {rotate} bind def
/sc {scale} bind def
/sd {setdash} bind def
/ff {findfont} bind def
/sf {setfont} bind def
/scf {scalefont} bind def
/sw {stringwidth} bind def
/tr {translate} bind def
/tnt {dup dup currentrgbcolor
  4 -2 roll dup 1 exch sub 3 -1 roll mul add
  4 -2 roll dup 1 exch sub 3 -1 roll mul add
  4 -2 roll dup 1 exch sub 3 -1 roll mul add srgb}
  bind def
/shd {dup dup currentrgbcolor 4 -2 roll mul 4 -2 roll mul
  4 -2 roll mul srgb} bind def
/$F2psBegin {$F2psDict begin /$F2psEnteredState save def} def
/$F2psEnd {$F2psEnteredState restore end} def

$F2psBegin
10 setmiterlimit
0 slj 0 slc
 0.06000 0.06000 sc
%
% Fig objects follow
%
% 
% here starts figure with depth 50
% Polyline
0 slj
0 slc
7.500 slw
n 4080 2325 m 3975 2325 3975 4095 105 arcto 4 {pop} repeat
  3975 4200 7020 4200 105 arcto 4 {pop} repeat
  7125 4200 7125 2430 105 arcto 4 {pop} repeat
  7125 2325 4080 2325 105 arcto 4 {pop} repeat
 cp gs col0 s gr 
/Times-Roman ff 200.00 scf sf
4207 3307 m
gs 1 -1 sc (A simple figure created with Xfig) col0 sh gr
% here ends figure;
$F2psEnd
rs
showpage
%%Trailer
%EOF
